Areal Data Model Fitting
…
Using the Tester - Rosendale election results and the adjacency matrix compute and interpret Morans I and Gearys C with the proportion voting for Tester.

Tester <- Tester %>% mutate(COUNTY = tolower(COUNTY))
Tester$COUNTY[Tester$COUNTY == 'lewis & clark'] <- 'lewis and clark'
comb <- tibble(COUNTY = rownames(mt.adj.mat)) %>% left_join(Tester, by = "COUNTY")

Now consider some covariates to explain the response

Consider a linear model with county population

library(usmap)
usmap::countypop

## # A tibble: 3,142 x 4
##    fips  abbr  county          pop_2015
##    <chr> <chr> <chr>              <dbl>
##  1 01001 AL    Autauga County     55347
##  2 01003 AL    Baldwin County    203709
##  3 01005 AL    Barbour County     26489
##  4 01007 AL    Bibb County        22583
##  5 01009 AL    Blount County      57673
##  6 01011 AL    Bullock County     10696
##  7 01013 AL    Butler County      20154
##  8 01015 AL    Calhoun County    115620
##  9 01017 AL    Chambers County    34123
## 10 01019 AL    Cherokee County    25859
## #  with 3,132 more rows
…
